Project 1: Exploratory Data Analysis
…
quantile(project1$expend)

##      0%     25%     50%     75%    100% 
## 3.65600 4.88175 5.76750 6.43400 9.77400

project1 %>% mutate(expend_cat = case_when(expend > 6.5 ~ "high", 
    expend <= 6.5 & 4.8 <= expend ~ "medium", expend < 4.8 ~ 
        "low"))

## # A tibble: 50 x 12
##    State CivilWar Church  Teen expend ratio salary  frac verbal  math   sat
##    <chr> <chr>     <dbl> <dbl>  <dbl> <dbl>  <dbl> <int>  <int> <int> <int>
##  1 AK    Other        26    64   8.96  17.6   48.0    47    445   489   934
##  2 AL    Confede…     46    62   4.40  17.2   31.1     8    491   538  1029
##  3 AR    Confede…     45    73   4.46  17.1   28.9     6    482   523  1005
##  4 AZ    Other        33    60   4.78  19.3   32.2    27    448   496   944
##  5 CA    Union        28    59   4.99  24     41.1    45    417   485   902
##  6 CO    Other        25    50   5.44  18.4   34.6    29    462   518   980
##  7 CT    Union        25    44   8.82  14.4   50.0    81    431   477   908
##  8 DE    Union        35    67   7.03  16.6   39.1    68    429   468   897
##  9 FL    Confede…     32    60   5.72  19.1   32.6    48    420   469   889
## 10 GA    Confede…     39    64   5.19  16.3   32.3    65    406   448   854
## # … with 40 more rows, and 1 more variable: expend_cat <chr>
…
project1 %>% group_by(CivilWar) %>% summarize_if(is.numeric, 
    list(mean = mean, sd = sd, min = min, max = max), na.rm = T) %>% 
    pivot_longer(contains("_")) %>% separate(name, into = c("variable", 
    "statistic")) %>% pivot_wider(names_from = "statistic", values_from = "value")

## # A tibble: 36 x 6
##    CivilWar    variable    mean     sd    min     max
##    <chr>       <chr>      <dbl>  <dbl>  <dbl>   <dbl>
##  1 Border      Church     38.3   3.06   35      41   
##  2 Border      Teen       61.7   7.51   54      69   
##  3 Border      expend      5.15  0.275   4.84    5.38
##  4 Border      ratio      16     0.866  15.5    17   
##  5 Border      salary     30.5   2.12   28.2    32.3 
##  6 Border      frac        9.67  1.15    9      11   
##  7 Border      verbal    488.    9.45  477     495   
##  8 Border      math      536    14     522     550   
##  9 Border      sat      1024.   23.2   999    1045   
## 10 Confederate Church     41.2   4.79   32      47   
## # … with 26 more rows
…
